%YAML 1.1
%TAG !u! tag:unity3d.com,2011:
--- !u!29 &1
SceneSettings:
  m_ObjectHideFlags: 0
  m_PVSData: 
  m_PVSObjectsArray: []
  m_PVSPortalsArray: []
  m_OcclusionBakeSettings:
    smallestOccluder: 5
    smallestHole: 0.25
    backfaceThreshold: 100
--- !u!104 &2
RenderSettings:
  m_ObjectHideFlags: 0
  serializedVersion: 7
  m_Fog: 0
  m_FogColor: {r: 0.5, g: 0.5, b: 0.5, a: 1}
  m_FogMode: 3
  m_FogDensity: 0.01
  m_LinearFogStart: 0
  m_LinearFogEnd: 300
  m_AmbientSkyColor: {r: 0.2, g: 0.2, b: 0.2, a: 1}
  m_AmbientEquatorColor: {r: 0.2, g: 0.2, b: 0.2, a: 1}
  m_AmbientGroundColor: {r: 0.2, g: 0.2, b: 0.2, a: 1}
  m_AmbientIntensity: 1
  m_AmbientMode: 3
  m_SkyboxMaterial: {fileID: 0}
  m_HaloStrength: 0.5
  m_FlareStrength: 1
  m_FlareFadeSpeed: 3
  m_HaloTexture: {fileID: 0}
  m_SpotCookie: {fileID: 10001, guid: 0000000000000000e000000000000000, type: 0}
  m_DefaultReflectionMode: 0
  m_DefaultReflectionResolution: 128
  m_ReflectionBounces: 1
  m_ReflectionIntensity: 1
  m_CustomReflection: {fileID: 0}
  m_Sun: {fileID: 0}
  m_IndirectSpecularColor: {r: 0, g: 0, b: 0, a: 1}
--- !u!157 &4
LightmapSettings:
  m_ObjectHideFlags: 0
  serializedVersion: 7
  m_GIWorkflowMode: 1
  m_GISettings:
    serializedVersion: 2
    m_BounceScale: 1
    m_IndirectOutputScale: 1
    m_AlbedoBoost: 1
    m_TemporalCoherenceThreshold: 1
    m_EnvironmentLightingMode: 0
    m_EnableBakedLightmaps: 1
    m_EnableRealtimeLightmaps: 0
  m_LightmapEditorSettings:
    serializedVersion: 4
    m_Resolution: 1
    m_BakeResolution: 50
    m_TextureWidth: 1024
    m_TextureHeight: 1024
    m_AO: 1
    m_AOMaxDistance: 1
    m_CompAOExponent: 1
    m_CompAOExponentDirect: 0
    m_Padding: 2
    m_LightmapParameters: {fileID: 0}
    m_LightmapsBakeMode: 1
    m_TextureCompression: 0
    m_DirectLightInLightProbes: 1
    m_FinalGather: 0
    m_FinalGatherFiltering: 1
    m_FinalGatherRayCount: 256
    m_ReflectionCompression: 2
  m_LightingDataAsset: {fileID: 0}
  m_RuntimeCPUUsage: 25
--- !u!196 &5
NavMeshSettings:
  serializedVersion: 2
  m_ObjectHideFlags: 0
  m_BuildSettings:
    serializedVersion: 2
    agentRadius: 0.5
    agentHeight: 2
    agentSlope: 45
    agentClimb: 0.4
    ledgeDropHeight: 0
    maxJumpAcrossDistance: 0
    accuratePlacement: 0
    minRegionArea: 2
    cellSize: 0.16666666
    manualCellSize: 0
  m_NavMeshData: {fileID: 0}
--- !u!1 &805476374
GameObject:
  m_ObjectHideFlags: 0
  m_PrefabParentObject: {fileID: 100000, guid: 80e2a8c30a78c0a40b7649bcc2f253e3, type: 2}
  m_PrefabInternal: {fileID: 910634382}
  serializedVersion: 4
  m_Component:
  - 4: {fileID: 805476375}
  - 33: {fileID: 805476378}
  - 23: {fileID: 805476377}
  m_Layer: 8
  m_Name: BG_PLANE
  m_TagString: Untagged
  m_Icon: {fileID: 0}
  m_NavMeshLayer: 0
  m_StaticEditorFlags: 0
  m_IsActive: 1
--- !u!4 &805476375
Transform:
  m_ObjectHideFlags: 0
  m_PrefabParentObject: {fileID: 400000, guid: 80e2a8c30a78c0a40b7649bcc2f253e3, type: 2}
  m_PrefabInternal: {fileID: 910634382}
  m_GameObject: {fileID: 805476374}
  m_LocalRotation: {x: 1, y: 0, z: 0, w: -0.00000006556708}
  m_LocalPosition: {x: 0, y: 0, z: 110}
  m_LocalScale: {x: 250, y: 250, z: 100}
  m_LocalEulerAnglesHint: {x: 0, y: 0, z: 0}
  m_Children: []
  m_Father: {fileID: 1137904967}
  m_RootOrder: 0
--- !u!23 &805476377
MeshRenderer:
  m_ObjectHideFlags: 0
  m_PrefabParentObject: {fileID: 2300000, guid: 80e2a8c30a78c0a40b7649bcc2f253e3,
    type: 2}
  m_PrefabInternal: {fileID: 910634382}
  m_GameObject: {fileID: 805476374}
  m_Enabled: 1
  m_CastShadows: 1
  m_ReceiveShadows: 1
  m_MotionVectors: 1
  m_LightProbeUsage: 0
  m_ReflectionProbeUsage: 1
  m_Materials:
  - {fileID: 2100000, guid: 7b17deeb11c5dc04d92d17c5f836227c, type: 2}
  m_SubsetIndices: 
  m_StaticBatchRoot: {fileID: 0}
  m_ProbeAnchor: {fileID: 0}
  m_LightProbeVolumeOverride: {fileID: 0}
  m_ScaleInLightmap: 1
  m_PreserveUVs: 0
  m_IgnoreNormalsForChartDetection: 0
  m_ImportantGI: 0
  m_SelectedWireframeHidden: 0
  m_MinimumChartSize: 4
  m_AutoUVMaxDistance: 0.5
  m_AutoUVMaxAngle: 89
  m_LightmapParameters: {fileID: 0}
  m_SortingLayerID: 0
  m_SortingOrder: 0
--- !u!33 &805476378
MeshFilter:
  m_ObjectHideFlags: 0
  m_PrefabParentObject: {fileID: 3300000, guid: 80e2a8c30a78c0a40b7649bcc2f253e3,
    type: 2}
  m_PrefabInternal: {fileID: 910634382}
  m_GameObject: {fileID: 805476374}
  m_Mesh: {fileID: 4300000, guid: 0e9c64fd5ab6c5140906d24037d3d444, type: 3}
--- !u!1001 &910634382
Prefab:
  m_ObjectHideFlags: 0
  serializedVersion: 2
  m_Modification:
    m_TransformParent: {fileID: 0}
    m_Modifications:
    - target: {fileID: 400004, guid: 80e2a8c30a78c0a40b7649bcc2f253e3, type: 2}
      propertyPath: m_LocalPosition.x
      value: 0
      objectReference: {fileID: 0}
    - target: {fileID: 400004, guid: 80e2a8c30a78c0a40b7649bcc2f253e3, type: 2}
      propertyPath: m_LocalPosition.y
      value: 0
      objectReference: {fileID: 0}
    - target: {fileID: 400004, guid: 80e2a8c30a78c0a40b7649bcc2f253e3, type: 2}
      propertyPath: m_LocalPosition.z
      value: -10
      objectReference: {fileID: 0}
    - target: {fileID: 400004, guid: 80e2a8c30a78c0a40b7649bcc2f253e3, type: 2}
      propertyPath: m_LocalRotation.x
      value: 0
      objectReference: {fileID: 0}
    - target: {fileID: 400004, guid: 80e2a8c30a78c0a40b7649bcc2f253e3, type: 2}
      propertyPath: m_LocalRotation.y
      value: 0
      objectReference: {fileID: 0}
    - target: {fileID: 400004, guid: 80e2a8c30a78c0a40b7649bcc2f253e3, type: 2}
      propertyPath: m_LocalRotation.z
      value: 0
      objectReference: {fileID: 0}
    - target: {fileID: 400004, guid: 80e2a8c30a78c0a40b7649bcc2f253e3, type: 2}
      propertyPath: m_LocalRotation.w
      value: 1
      objectReference: {fileID: 0}
    m_RemovedComponents: []
  m_ParentPrefab: {fileID: 100100000, guid: 80e2a8c30a78c0a40b7649bcc2f253e3, type: 2}
  m_RootGameObject: {fileID: 1137904962}
  m_IsPrefabParent: 0
--- !u!1 &1004722631
GameObject:
  m_ObjectHideFlags: 0
  m_PrefabParentObject: {fileID: 100002, guid: 80e2a8c30a78c0a40b7649bcc2f253e3, type: 2}
  m_PrefabInternal: {fileID: 910634382}
  serializedVersion: 4
  m_Component:
  - 4: {fileID: 1004722636}
  - 114: {fileID: 1004722635}
  - 33: {fileID: 1004722634}
  - 23: {fileID: 1004722633}
  m_Layer: 8
  m_Name: VideoManager
  m_TagString: Untagged
  m_Icon: {fileID: 0}
  m_NavMeshLayer: 0
  m_StaticEditorFlags: 0
  m_IsActive: 1
--- !u!23 &1004722633
MeshRenderer:
  m_ObjectHideFlags: 0
  m_PrefabParentObject: {fileID: 2300002, guid: 80e2a8c30a78c0a40b7649bcc2f253e3,
    type: 2}
  m_PrefabInternal: {fileID: 910634382}
  m_GameObject: {fileID: 1004722631}
  m_Enabled: 1
  m_CastShadows: 1
  m_ReceiveShadows: 1
  m_MotionVectors: 1
  m_LightProbeUsage: 0
  m_ReflectionProbeUsage: 1
  m_Materials:
  - {fileID: 2100000, guid: 08bd3aadbe5082547ba375cd1208905b, type: 2}
  m_SubsetIndices: 
  m_StaticBatchRoot: {fileID: 0}
  m_ProbeAnchor: {fileID: 0}
  m_LightProbeVolumeOverride: {fileID: 0}
  m_ScaleInLightmap: 1
  m_PreserveUVs: 0
  m_IgnoreNormalsForChartDetection: 0
  m_ImportantGI: 0
  m_SelectedWireframeHidden: 0
  m_MinimumChartSize: 4
  m_AutoUVMaxDistance: 0.5
  m_AutoUVMaxAngle: 89
  m_LightmapParameters: {fileID: 0}
  m_SortingLayerID: 0
  m_SortingOrder: 0
--- !u!33 &1004722634
MeshFilter:
  m_ObjectHideFlags: 0
  m_PrefabParentObject: {fileID: 3300002, guid: 80e2a8c30a78c0a40b7649bcc2f253e3,
    type: 2}
  m_PrefabInternal: {fileID: 910634382}
  m_GameObject: {fileID: 1004722631}
  m_Mesh: {fileID: 10210, guid: 0000000000000000e000000000000000, type: 0}
--- !u!114 &1004722635
MonoBehaviour:
  m_ObjectHideFlags: 0
  m_PrefabParentObject: {fileID: 11400002, guid: 80e2a8c30a78c0a40b7649bcc2f253e3,
    type: 2}
  m_PrefabInternal: {fileID: 910634382}
  m_GameObject: {fileID: 1004722631}
  m_Enabled: 1
  m_EditorHideFlags: 0
  m_Script: {fileID: 11500000, guid: fb521e9ace49d8546a83f420a0debd12, type: 3}
  m_Name: 
  m_EditorClassIdentifier: 
  m_strFileName: 65645f313032345f3531326b622e6d7034
  m_TargetMaterial: {fileID: 1004722631}
  m_bFullScreen: 1
  m_bSupportRockchip: 1
  m_ScaleValue: 0
  m_objResize: {fileID: 1004722631}
  m_bLoop: 1
  m_bAutoPlay: 1
--- !u!4 &1004722636
Transform:
  m_ObjectHideFlags: 0
  m_PrefabParentObject: {fileID: 400002, guid: 80e2a8c30a78c0a40b7649bcc2f253e3, type: 2}
  m_PrefabInternal: {fileID: 910634382}
  m_GameObject: {fileID: 1004722631}
  m_LocalRotation: {x: 0, y: 0, z: 0, w: 1}
  m_LocalPosition: {x: 0, y: 0, z: 10}
  m_LocalScale: {x: 20, y: 20, z: 1}
  m_LocalEulerAnglesHint: {x: 0, y: 0, z: 0}
  m_Children: []
  m_Father: {fileID: 1137904967}
  m_RootOrder: 1
--- !u!1 &1137904962
GameObject:
  m_ObjectHideFlags: 0
  m_PrefabParentObject: {fileID: 100004, guid: 80e2a8c30a78c0a40b7649bcc2f253e3, type: 2}
  m_PrefabInternal: {fileID: 910634382}
  serializedVersion: 4
  m_Component:
  - 4: {fileID: 1137904967}
  - 20: {fileID: 1137904966}
  - 92: {fileID: 1137904965}
  - 124: {fileID: 1137904964}
  - 81: {fileID: 1137904963}
  - 114: {fileID: 1137904968}
  - 114: {fileID: 1137904969}
  m_Layer: 8
  m_Name: FullScreen
  m_TagString: MainCamera
  m_Icon: {fileID: 0}
  m_NavMeshLayer: 0
  m_StaticEditorFlags: 0
  m_IsActive: 1
--- !u!81 &1137904963
AudioListener:
  m_ObjectHideFlags: 0
  m_PrefabParentObject: {fileID: 8100000, guid: 80e2a8c30a78c0a40b7649bcc2f253e3,
    type: 2}
  m_PrefabInternal: {fileID: 910634382}
  m_GameObject: {fileID: 1137904962}
  m_Enabled: 1
--- !u!124 &1137904964
Behaviour:
  m_ObjectHideFlags: 0
  m_PrefabParentObject: {fileID: 12400000, guid: 80e2a8c30a78c0a40b7649bcc2f253e3,
    type: 2}
  m_PrefabInternal: {fileID: 910634382}
  m_GameObject: {fileID: 1137904962}
  m_Enabled: 1
--- !u!92 &1137904965
Behaviour:
  m_ObjectHideFlags: 0
  m_PrefabParentObject: {fileID: 9200000, guid: 80e2a8c30a78c0a40b7649bcc2f253e3,
    type: 2}
  m_PrefabInternal: {fileID: 910634382}
  m_GameObject: {fileID: 1137904962}
  m_Enabled: 1
--- !u!20 &1137904966
Camera:
  m_ObjectHideFlags: 0
  m_PrefabParentObject: {fileID: 2000000, guid: 80e2a8c30a78c0a40b7649bcc2f253e3,
    type: 2}
  m_PrefabInternal: {fileID: 910634382}
  m_GameObject: {fileID: 1137904962}
  m_Enabled: 1
  serializedVersion: 2
  m_ClearFlags: 2
  m_BackGroundColor: {r: 1, g: 1, b: 1, a: 1}
  m_NormalizedViewPortRect:
    serializedVersion: 2
    x: 0
    y: 0
    width: 1
    height: 1
  near clip plane: 0.3
  far clip plane: 1000
  field of view: 60
  orthographic: 1
  orthographic size: 10
  m_Depth: -1
  m_CullingMask:
    serializedVersion: 2
    m_Bits: 256
  m_RenderingPath: -1
  m_TargetTexture: {fileID: 0}
  m_TargetDisplay: 0
  m_TargetEye: 3
  m_HDR: 0
  m_OcclusionCulling: 1
  m_StereoConvergence: 10
  m_StereoSeparation: 0.022
  m_StereoMirrorMode: 0
--- !u!4 &1137904967
Transform:
  m_ObjectHideFlags: 0
  m_PrefabParentObject: {fileID: 400004, guid: 80e2a8c30a78c0a40b7649bcc2f253e3, type: 2}
  m_PrefabInternal: {fileID: 910634382}
  m_GameObject: {fileID: 1137904962}
  m_LocalRotation: {x: 0, y: 0, z: 0, w: 1}
  m_LocalPosition: {x: 0, y: 0, z: -10}
  m_LocalScale: {x: 1, y: 1, z: 1}
  m_LocalEulerAnglesHint: {x: 0, y: 0, z: 0}
  m_Children:
  - {fileID: 805476375}
  - {fileID: 1004722636}
  m_Father: {fileID: 0}
  m_RootOrder: 0
--- !u!114 &1137904968
MonoBehaviour:
  m_ObjectHideFlags: 0
  m_PrefabParentObject: {fileID: 11400000, guid: 80e2a8c30a78c0a40b7649bcc2f253e3,
    type: 2}
  m_PrefabInternal: {fileID: 910634382}
  m_GameObject: {fileID: 1137904962}
  m_Enabled: 1
  m_EditorHideFlags: 0
  m_Script: {fileID: 11500000, guid: 5faeb80dc9eb5ef4ca61e291e7d094d5, type: 3}
  m_Name: 
  m_EditorClassIdentifier: 
  m_objVideo: {fileID: 1004722631}
--- !u!114 &1137904969
MonoBehaviour:
  m_ObjectHideFlags: 0
  m_PrefabParentObject: {fileID: 11400004, guid: 80e2a8c30a78c0a40b7649bcc2f253e3,
    type: 2}
  m_PrefabInternal: {fileID: 910634382}
  m_GameObject: {fileID: 1137904962}
  m_Enabled: 1
  m_EditorHideFlags: 0
  m_Script: {fileID: 11500000, guid: eee7f119e152af540911508b5fe8ad36, type: 3}
  m_Name: 
  m_EditorClassIdentifier: 
  scrMedia: {fileID: 1004722635}
  m_bFinish: 0
